<svg width="11" height="18" viewBox="0 0 11 18" fill="none" xmlns="http://www.w3.org/2000/svg">
<path d="M10.1667 0.666748H7.66667C6.5616 0.666748 5.50179 1.10573 4.72039 1.88714C3.93899 2.66854 3.5 3.72835 3.5 4.83341V7.33342H1V10.6667H3.5V17.3334H6.83333V10.6667H9.33333L10.1667 7.33342H6.83333V4.83341C6.83333 4.6124 6.92113 4.40044 7.07741 4.24416C7.23369 4.08788 7.44565 4.00008 7.66667 4.00008H10.1667V0.666748Z" stroke="#4489F1" stroke-linecap="round" stroke-linejoin="round"/>
</svg>
